<?xml version="1.0" encoding="UTF-8" standalone="no"?>
<!-- Created with Inkscape (http://www.inkscape.org/) -->

<svg
   width="149.77075mm"
   height="86.956619mm"
   viewBox="0 0 149.77075 86.956619"
   version="1.1"
   id="svg770"
   xmlns="http://www.w3.org/2000/svg"
   xmlns:svg="http://www.w3.org/2000/svg">
  <defs
     id="defs767" />
  <g
     id="layer1"
     transform="translate(-28.636263,-100.02409)">
    <path
       d="m 178.40701,171.22319 c 0,8.70267 -33.52729,15.75752 -74.8852,15.75752 -41.358253,0 -74.885547,-7.05485 -74.885547,-15.75752 0,-8.70232 33.527294,-15.75717 74.885547,-15.75717 41.35791,0 74.8852,7.05485 74.8852,15.75717"
       style="fill:#cccccc;fill-opacity:1;fill-rule:nonzero;stroke:none;stroke-width:0.352778"
       id="path367" />
    <path
       d="m 98.559357,177.00267 0.40922,-12.70529 -37.63468,-12.26503 c -0.008,0 -0.20955,-0.0392 -0.47378,-0.0392 -0.51541,0 -1.2566,0.13229 -1.88842,0.77963 -0.997306,1.01283 -1.489431,3.01026 -1.430164,5.77145 0.168628,7.72407 3.642434,8.04051 3.792364,8.04792 0.0751,0.008 0.1658,0.0183 0.23318,0.0441 z m 3.209223,-39.59507 0.40675,-12.70565 -12.521493,-4.08234 -25.10261,-8.18021 c -0.0155,0 -0.20708,-0.0441 -0.48189,-0.0441 -0.50765,0 -1.25625,0.13476 -1.88842,0.78246 -0.99695,1.0153 -1.48661,3.0099 -1.42981,5.77109 0.17356,7.72443 3.64172,8.04016 3.79236,8.05568 0.0674,0 0.1658,0.0183 0.23283,0.0339 l 1.85209,0.51541 z m 8.53228,19.81588 -0.40111,-12.61498 -8.23207,-1.68875 -2.743203,-0.5648 -31.40462,-6.46006 -4.87257,-0.99977 c 1.55681,2.85185 1.48696,6.75251 1.23825,9.25477 -0.0649,0.56726 -0.12453,1.08267 -0.19191,1.47884 l 4.18324,1.04175 z m 37.95572,-2.53083 -4.87222,0.99977 -25.42928,5.22993 -5.50933,1.78718 -1.47355,-0.35737 -9.96774,2.05387 -0.40146,12.61216 46.60724,-11.5891 c -0.0596,-0.39899 -0.127,-0.91652 -0.1838,-1.48131 -0.25647,-2.51002 -0.32632,-6.41139 1.23014,-9.25513 m 3.2198,-39.59295 -4.87468,0.9973 -32.71062,6.72712 -9.66928,1.98684 -0.40711,12.61428 41.27429,-10.27042 5.32801,-1.3208 c -0.0568,-0.39899 -0.12171,-0.9144 -0.1838,-1.48167 -0.25647,-2.49978 -0.32138,-6.40327 1.24319,-9.25265 m 1.89371,23.64704 c 0.0568,-2.76154 -0.44062,-4.75615 -1.43016,-5.77144 -1.02306,-1.03858 -2.419,-0.73307 -2.419,-0.73307 l -26.59203,8.67515 -10.98303,3.58211 0.40922,12.70564 33.47191,-9.37683 3.52036,-0.99236 c 0.0751,-0.0229 0.16581,-0.0332 0.24871,-0.0413 0.12418,-0.008 3.60045,-0.32385 3.77402,-8.04792 m -1.01283,-13.80102 c 10.70857,3.04095 6.85659,4.03014 6.85659,4.03014 l -4.93747,1.19944 c 1.41428,1.61925 2.64512,4.37233 2.37031,9.06075 -0.39088,6.83577 -2.89348,9.46255 -4.56389,10.46762 l 2.49943,0.75918 c 1.32398,1.47073 -0.36265,2.55869 -2.79999,3.34115 -0.049,0.0413 -0.0829,0.0907 -0.1397,0.12453 -2.98697,1.86479 -2.92735,7.40022 -2.49485,10.60203 10.70857,3.04342 6.86682,4.04107 6.86682,4.04107 l -57.548643,13.9358 -38.12928,-12.3899 c 0,0 -5.481104,-0.71473 -6.069185,-11.08393 -0.318205,-5.36928 1.329267,-8.1982 2.984148,-9.69257 l -2.354439,-0.56762 c 0,0 -3.838575,-0.99695 6.869286,-4.0326 0.42228,-3.21733 0.4819,-8.74748 -2.49414,-10.61014 -0.0596,-0.0335 -0.0935,-0.0829 -0.14287,-0.12418 -2.434521,-0.78246 -4.123621,-1.87043 -2.802468,-3.34187 l 4.781898,-1.4478 c -1.54657,-1.36242 -3.315754,-4.13138 -3.642073,-9.76806 -0.59055,-10.36884 6.079423,-11.32734 6.079423,-11.32734 l 58.260893,-8.09731 35.98722,10.84298 c 1.3208,1.47143 -0.36795,2.56716 -2.80282,3.35174 -0.0519,0.0392 -0.0907,0.091 -0.14217,0.12206 -2.98415,1.85455 -2.927,7.39246 -2.49203,10.60485"
       style="fill:#50b8e6;fill-opacity:1;fill-rule:nonzero;stroke:none;stroke-width:0.352778"
       id="path383" />
    <path
       d="m 151.94008,132.97538 c 0.98954,1.01529 1.48696,3.0099 1.43016,5.77109 -0.17357,7.72442 -3.64984,8.04016 -3.77437,8.04827 -0.0829,0.008 -0.17356,0.0184 -0.24871,0.0413 l -3.52001,0.99236 -33.47191,9.37684 -0.40922,-12.70565 10.98303,-3.5821 26.59203,-8.67516 c 0,0 1.39594,-0.30551 2.419,0.73307"
       style="fill:#ffffff;fill-opacity:1;fill-rule:nonzero;stroke:none;stroke-width:0.352778"
       id="path387" />
    <path
       d="m 146.60156,116.09718 4.87468,-0.9973 c -1.56421,2.84903 -1.49966,6.75252 -1.24319,9.2523 0.0625,0.56762 0.127,1.08303 0.1838,1.48202 l -5.328,1.3208 -41.27394,10.27042 0.40675,-12.61463 9.66929,-1.98684 z"
       style="fill:#ffffff;fill-opacity:1;fill-rule:nonzero;stroke:none;stroke-width:0.352778"
       id="path391" />
    <path
       d="m 143.38454,155.69236 4.87221,-0.99977 c -1.5568,2.84409 -1.4866,6.74511 -1.23049,9.25512 0.0568,0.5648 0.12454,1.08268 0.18415,1.48167 l -46.60758,11.58875 0.40146,-12.61216 9.96773,-2.05387 1.47391,0.35772 5.50933,-1.78753 z"
       style="fill:#ffffff;fill-opacity:1;fill-rule:nonzero;stroke:none;stroke-width:0.352778"
       id="path395" />
    <path
       d="m 109.89959,144.60843 0.40146,12.61498 -42.424003,-10.55299 -4.18359,-1.0414 c 0.0677,-0.39617 0.12736,-0.91158 0.19191,-1.4792 0.24871,-2.50225 0.31892,-6.40292 -1.23789,-9.25477 l 4.87221,0.99977 31.40498,6.46007 2.742853,0.56479 z"
       style="fill:#ffffff;fill-opacity:1;fill-rule:nonzero;stroke:none;stroke-width:0.352778"
       id="path399" />
    <path
       d="m 102.17534,124.70199 -0.40675,12.70564 -35.140203,-9.85378 -1.85208,-0.51541 c -0.067,-0.0155 -0.16545,-0.0339 -0.23283,-0.0339 -0.15064,-0.0155 -3.6188,-0.33126 -3.79236,-8.05568 -0.0568,-2.76119 0.43285,-4.7558 1.4298,-5.77109 0.63218,-0.6477 1.38078,-0.78246 1.88842,-0.78246 0.27482,0 0.46638,0.0441 0.4819,0.0441 l 25.10261,8.18022 z"
       style="fill:#ffffff;fill-opacity:1;fill-rule:nonzero;stroke:none;stroke-width:0.352778"
       id="path403" />
    <path
       d="m 98.968637,164.29753 -0.40922,12.70529 -36.99263,-10.36637 c -0.067,-0.0258 -0.15769,-0.0363 -0.23284,-0.0441 -0.14993,-0.008 -3.623729,-0.32385 -3.792356,-8.04827 -0.05962,-2.76119 0.432858,-4.75827 1.430156,-5.77109 0.63183,-0.64735 1.37302,-0.77964 1.88842,-0.77964 0.26423,0 0.46602,0.0388 0.47378,0.0388 z"
       style="fill:#ffffff;fill-opacity:1;fill-rule:nonzero;stroke:none;stroke-width:0.352778"
       id="path407" />
  </g>
</svg>
